@PIB 
	[A6:N10007]
		[A]	SEQ_NO	N(15)
		[B]	INVOICE_NO	C(16) * 
		[C]	INVOICE_DATE	D * 
		[D]	TAX_NO	C(25)
		[E]	TAX_DT	D
		[F]	CURRENCY_CD	C(3) * 
		[G]	AMOUNT_BM	N(16)
		[H]	AMOUNT_PPN_IMPORT	N(16)
		[I]	AMOUNT_PPnBM	N(16)
		[J]	AMOUNT_PPh22	N(16)
		[K]	AMOUNT_PnPB	N(16)
		[L]	AMOUNT_BANK_CHARGE	N(16)
		[M]	AMOUNT	N(16)
		[N]	DESCRIPTION	C(50) * 
		[O]	ERRMSG	C